{
  "ID": "D9316C07-95D5-40AE-B348-D7D14D0E16AA",
  "ActionKeyword": "s",
  "Name": "Visual Studio .sln finder",
  "Description": "This plugin searches for .sln files in the given folders",
  "Author": "Antonis Farangitakis",
  "Version": "1.0.2",
  "Language": "csharp",
  "Website": "https://bitbucket.org/afarazit/wox.plugins",
  "IcoPath": "vsIcon.png",
  "ExecuteFileName": "Afarazit.Wox.Plugin.VsSln.dll"
}